name,position,game_played,minutes_played,goals,assists,yellow_cards,red_cards,team
Aaron Cresswell,DEF,20,1588,0,1,1,0,West Ham
Aaron Mooy,MID,29,2326,3,1,4,0,Huddersfield
Aaron Wan-Bissaka,DEF,35,3134,0,3,4,1,Crystal Palace
Abdoulaye Doucouré,MID,35,3061,5,7,7,0,Watford
Aboubakar Kamara,MID,13,688,3,0,2,0,Fulham
Adama Traoré,MID,29,884,1,1,1,0,Wolves
Adam Lallana,MID,13,460,0,1,1,0,Liverpool
Ademola Lookman,MID,21,600,0,3,0,0,Everton
Adrián San Miguel del Castillo,GK,0,0,0,0,0,0,West Ham
Ainsley Maitland-Niles,DEF,16,983,1,1,1,1,Arsenal
Alexandre Lacazette,FWD,35,2497,13,12,2,0,Arsenal
Alex Iwobi,MID,35,1961,3,8,0,0,Arsenal
Alex McCarthy,GK,25,2250,0,0,1,0,Southampton
Alex Oxlade-Chamberlain,MID,2,19,0,0,0,0,Liverpool
Alfie Mawson,DEF,15,1130,0,0,2,0,Fulham
Alireza Jahanbakhsh,MID,19,1014,0,0,2,0,Brighton
Alisson Ramses Becker,GK,38,3420,0,0,1,0,Liverpool
Andreas Christensen,DEF,8,615,0,0,1,0,Chelsea
Andreas Pereira,MID,15,590,1,1,5,0,Man Utd
Andrew Robertson,DEF,36,3216,0,12,4,0,Liverpool
Andriy Yarmolenko,MID,9,456,2,1,2,0,West Ham
Andros Townsend,MID,38,3007,6,5,1,0,Crystal Palace
André Filipe Tavares Gomes,MID,27,1977,1,2,7,0,Everton
André-Frank Zambo Anguissa,MID,22,1512,0,0,1,1,Fulham
Andy Carroll,FWD,12,454,0,0,2,0,West Ham
Angelo Ogbonna,DEF,24,1871,1,1,2,0,West Ham
Angus Gunn,GK,12,1080,0,0,0,0,Southampton
Anthony Knockaert,MID,30,1828,2,6,4,1,Brighton
Anthony Martial,FWD,27,1613,10,4,2,0,Man Utd
Antonio Rüdiger,DEF,33,2871,1,2,7,0,Chelsea
Arthur Masuaku,DEF,23,1757,0,2,2,0,West Ham
Ashley Barnes,FWD,37,2378,12,3,8,0,Burnley
Ashley Westwood,MID,34,2821,2,8,5,0,Burnley
Aymeric Laporte,DEF,35,3056,3,3,3,0,Man City
Ayoze Pérez,MID,37,2916,12,2,2,0,Newcastle
Bamidele Alli,MID,25,1822,5,4,4,0,Spurs
Barry Douglas,DEF,0,0,0,0,0,0,Wolves
Benjamin Chilwell,DEF,36,3240,0,5,4,0,Leicester
Benjamin Mendy,DEF,10,900,0,6,1,0,Man City
Ben Davies,DEF,27,1837,0,0,2,0,Spurs
Ben Gibson,DEF,1,62,1,0,1,0,Burnley
Ben Mee,DEF,38,3420,0,2,9,0,Burnley
Bernardo Mota Veiga de Carvalho e Silva,MID,36,2849,7,8,3,0,Man City
Bernardo Fernandes da Silva Junior,DEF,22,1749,0,1,4,0,Brighton
Bernard Anício Caldeira Duarte,MID,34,2108,1,4,5,0,Everton
Bernd Leno,GK,32,2832,0,0,0,0,Arsenal
Callum Hudson-Odoi,MID,10,388,0,1,0,0,Chelsea
Callum Wilson,FWD,30,2528,14,12,3,0,Bournemouth
Calum Chambers,DEF,31,2586,2,0,9,0,Fulham
Cenk Tosun,FWD,25,1044,3,3,3,0,Everton
Charlie Austin,FWD,25,970,2,2,1,0,Southampton
Charlie Taylor,DEF,38,3240,0,1,2,0,Burnley
Cheikhou Kouyaté,MID,31,1889,0,3,3,0,Crystal Palace
Christian Atsu,MID,28,1481,1,1,2,0,Newcastle
Christian Benteke,FWD,16,807,1,1,1,0,Crystal Palace
Christian Fuchs,DEF,3,206,0,0,0,0,Leicester
Chris Smalling,DEF,24,2127,1,0,1,0,Man Utd
Chris Wood,FWD,38,2580,10,3,2,0,Burnley
Ciaran Clark,DEF,11,857,3,0,1,0,Newcastle
Claudio Bravo,GK,0,0,0,0,0,0,Man City
Connor Wickham,FWD,6,61,0,1,0,0,Crystal Palace
Conor Coady,DEF,38,3420,0,0,5,0,Wolves
Cyrus Christie,DEF,28,1941,0,1,7,0,Fulham
Cédric Soares,DEF,18,1493,1,2,4,0,Southampton
César Azpilicueta,DEF,38,3402,1,6,4,0,Chelsea
Dale Stephens,MID,30,2484,1,1,6,1,Brighton
Daniel Amartey,DEF,9,639,0,0,2,0,Leicester
Danny Ings,FWD,24,1650,7,3,1,0,Southampton
Danny Rose,DEF,26,1792,0,4,5,0,Spurs
Danny Welbeck,FWD,8,146,1,1,0,0,Arsenal
David Button,GK,4,360,0,0,0,0,Brighton
David Luiz Moreira Marinho,DEF,36,3238,3,2,3,0,Chelsea
Davinson Sánchez,DEF,23,1941,1,2,2,0,Spurs
Davy Pröpper,MID,30,2546,1,1,2,0,Brighton
DeAndre Yedlin,DEF,29,2472,1,2,6,1,Newcastle
Declan Rice,MID,34,3003,2,0,4,0,West Ham
Demarai Gray,MID,34,1978,4,1,2,0,Leicester
Denis Odoi,DEF,31,2593,0,1,4,0,Fulham
Diogo Jota,MID,33,2352,9,8,11,0,Wolves
Dominic Calvert-Lewin,FWD,35,1769,6,5,3,0,Everton
Dwight Gayle,FWD,0,0,0,0,0,0,Newcastle
Ederson Santana de Moraes,GK,38,3420,0,1,2,0,Man City
Emerson Palmieri dos Santos,DEF,10,660,0,0,0,0,Chelsea
Eric Bailly,DEF,12,636,0,0,0,1,Man Utd
Eric Dier,DEF,20,1504,3,0,4,0,Spurs
Erik Lamela,MID,19,965,4,4,2,0,Spurs
Ethan Ampadu,DEF,0,0,0,0,0,0,Chelsea
Fabian Delph,MID,11,722,0,1,1,1,Man City
Fabian Schär,DEF,24,2000,4,1,12,0,Newcastle
Fabio Henrique Tavares,MID,28,2011,1,2,6,0,Liverpool
Fabián Balbuena,DEF,23,2013,1,0,2,0,West Ham
Fabricio Agosto Ramírez,GK,2,180,0,0,0,0,Fulham
Federico Fernández,DEF,19,1482,0,2,2,0,Newcastle
Felipe Anderson Pereira Gomes,MID,36,3045,9,6,3,0,West Ham
Fernando Luiz Rosa,DEF,29,2375,1,3,5,0,Man City
Filip Benkovic,DEF,0,0,0,0,0,0,Leicester
Florian Lejeune,DEF,12,1054,0,0,0,0,Newcastle
Florin Andone,FWD,23,866,3,0,5,0,Brighton
Fraser Forster,GK,1,90,0,0,0,0,Southampton
Frederico Rodrigues de Paula Santos,MID,17,1039,1,2,2,0,Man Utd
Gabriel Fernando de Jesus,FWD,29,1017,7,3,1,0,Man City
Gary Cahill,DEF,2,22,0,0,0,0,Chelsea
Georginio Wijnaldum,MID,35,2723,3,1,3,0,Liverpool
Glenn Murray,FWD,38,2501,13,1,5,0,Brighton
Granit Xhaka,MID,29,2498,4,3,10,0,Arsenal
Gylfi Sigurdsson,MID,38,3122,13,6,3,0,Everton
Hamza Choudhury,MID,9,593,0,0,0,0,Leicester
Harry Kane,FWD,28,2423,17,6,5,0,Spurs
Harry Maguire,DEF,31,2596,3,1,6,1,Leicester
Harry Winks,MID,26,1589,1,0,4,0,Spurs
Heung-Min Son,MID,31,2033,12,8,2,1,Spurs
Hugo Lloris,GK,33,2970,0,0,0,0,Spurs
Héctor Bellerín,DEF,19,1532,0,5,3,0,Arsenal
Ilkay Gündogan,MID,31,2129,6,3,3,0,Man City
Isaac Hayden,MID,25,1857,1,4,3,1,Newcastle
Issa Diop,DEF,33,2970,1,0,4,0,West Ham
Jack Cork,MID,37,3312,1,2,6,0,Burnley
Jack Stephens,DEF,24,1697,1,0,4,0,Southampton
Jack Wilshere,MID,8,388,0,2,2,0,West Ham
Jacob Murphy,MID,9,296,0,1,0,0,Newcastle
Jairo Riedewald,MID,0,0,0,0,0,0,Crystal Palace
Jamaal Lascelles,DEF,32,2745,0,1,4,0,Newcastle
James Maddison,MID,36,2831,7,7,3,1,Leicester
James McArthur,MID,38,3057,3,7,7,0,Crystal Palace
James McCarthy,MID,1,14,0,0,0,0,Everton
James Milner,MID,31,1778,5,5,5,1,Liverpool
James Tarkowski,DEF,35,3086,3,2,8,0,Burnley
James Tomkins,DEF,29,2561,1,1,6,0,Crystal Palace
James Ward-Prowse,MID,26,1940,7,0,4,0,Southampton
Jamie Vardy,FWD,34,2726,18,5,3,1,Leicester
Jannik Vestergaard,DEF,23,2027,0,0,2,0,Southampton
Jan Bednarek,DEF,25,2150,0,1,7,0,Southampton
Jason Steele,GK,0,0,0,0,0,0,Brighton
Javier Manquillo,DEF,18,1098,0,3,2,0,Newcastle
Jeffrey Schlupp,MID,30,1660,4,3,1,0,Crystal Palace
Jeff Hendrick,MID,32,2058,2,2,4,0,Burnley
Jesse Lingard,MID,27,1657,4,3,3,0,Man Utd
Joel Matip,DEF,22,1535,1,0,3,0,Liverpool
Joel Ward,DEF,7,551,1,0,1,0,Crystal Palace
Joe Bryan,DEF,28,2344,0,1,5,0,Fulham
Joe Hart,GK,19,1710,0,0,0,0,Burnley
Johann Berg Gudmundsson,MID,29,1743,3,7,2,0,Burnley
John Ruddy,GK,1,90,0,0,0,0,Wolves
John Stones,DEF,24,1761,0,0,1,0,Man City
Jonas Lössl,GK,31,2777,0,1,1,0,Huddersfield
Jonathan Castro Otto,DEF,33,2772,1,3,6,0,Wolves
Jonjoe Kenny,DEF,10,789,0,1,1,0,Everton
Jonjo Shelvey,MID,16,943,1,1,1,0,Newcastle
Jonny Evans,DEF,24,1993,1,0,2,0,Leicester
Jordan Ayew,FWD,20,1176,1,3,3,0,Crystal Palace
Jordan Henderson,MID,32,1976,1,3,1,1,Liverpool
Jordan Hugill,FWD,0,0,0,0,0,0,West Ham
Jordan Pickford,GK,38,3420,0,0,1,0,Everton
Jorge Luiz Frello Filho,MID,37,3156,2,0,8,0,Chelsea
Joseph Gomez,DEF,16,1059,0,0,2,0,Liverpool
Joshua King,FWD,35,2963,12,3,3,0,Bournemouth
José Diogo Dalot Teixeira,DEF,16,1009,0,2,3,0,Man Utd
João Filipe Iria Santos Moutinho,MID,38,3030,1,8,4,0,Wolves
Juan Mata,MID,22,1284,3,4,3,0,Man Utd
Karl Darlow,GK,0,0,0,0,0,0,Newcastle
Kasper Schmeichel,GK,38,3420,0,0,3,0,Leicester
Kelechi Iheanacho,FWD,30,924,1,5,2,0,Leicester
Kenneth Zohore,FWD,19,741,1,1,1,0,Cardiff
Kepa Arrizabalaga,GK,36,3240,0,0,2,0,Chelsea
Kevin De Bruyne,MID,19,968,2,3,2,0,Man City
Kevin Long,DEF,6,513,0,1,0,0,Burnley
Kevin McDonald,MID,15,837,0,0,4,1,Fulham
Kortney Hause,DEF,0,0,0,0,0,0,Wolves
Kyle Walker-Peters,DEF,6,374,0,3,1,0,Spurs
Kyle Walker,DEF,33,2776,1,1,3,0,Man City
Leander Dendoncker,MID,19,1465,2,0,1,0,Wolves
Lee Grant,GK,0,0,0,0,0,0,Man Utd
Lee Peltier,DEF,20,1542,0,0,4,0,Cardiff
Lewis Dunk,DEF,36,3151,2,1,5,1,Brighton
Lucas Digne,DEF,35,2964,4,5,5,1,Everton
Lucas Rodrigues Moura da Silva,MID,32,2115,10,2,3,0,Spurs
Lucas Torreira,MID,34,2377,2,4,7,1,Arsenal
Lukasz Fabianski,GK,38,3420,0,0,0,0,West Ham
Luka Milivojevic,MID,38,3420,12,2,10,0,Crystal Palace
Luke Shaw,DEF,29,2591,1,5,11,0,Man Utd
Lys Mousset,FWD,24,350,1,0,1,0,Bournemouth
Mamadou Sakho,DEF,27,2416,0,0,2,0,Crystal Palace
Manuel Lanzini,MID,10,685,1,2,2,0,West Ham
Marcos Alonso,DEF,31,2759,2,8,6,0,Chelsea
Marcos Rojo,DEF,5,209,0,0,2,0,Man Utd
Marcus Bettinelli,GK,7,630,0,0,1,0,Fulham
Marcus Rashford,MID,33,2331,10,7,3,1,Man Utd
Marc Albrighton,MID,27,1617,2,2,3,0,Leicester
Mario Lemina,MID,21,1612,1,2,5,0,Southampton
Mark Noble,MID,31,2289,5,5,6,1,West Ham
Martin Dubravka,GK,38,3420,0,0,1,0,Newcastle
Martin Kelly,DEF,13,1110,0,0,2,0,Crystal Palace
Martín Montoya,DEF,25,2166,0,1,4,0,Brighton
Mason Holgate,DEF,5,407,0,0,1,0,Everton
Matej Vydra,FWD,13,310,1,1,1,0,Burnley
Mateo Kovacic,MID,32,1725,0,2,3,0,Chelsea
Mathew Ryan,GK,34,3060,0,0,2,0,Brighton
Matteo Guendouzi,MID,33,2140,0,0,9,0,Arsenal
Matthew Lowton,DEF,21,1748,0,0,7,0,Burnley
Matty James,MID,0,0,0,0,0,0,Leicester
Matt Doherty,DEF,38,3141,4,7,5,0,Wolves
Matt Ritchie,MID,36,2927,2,8,9,0,Newcastle
Matt Targett,DEF,16,1185,1,3,2,0,Southampton
Maxime Le Marchand,DEF,26,2250,0,1,5,0,Fulham
Max Meyer,MID,29,1405,1,3,3,0,Crystal Palace
Mesut Özil,MID,24,1732,5,3,2,0,Arsenal
Michael Keane,DEF,33,2970,1,2,2,0,Everton
Michail Antonio,FWD,33,2093,6,8,3,0,West Ham
Mohamed Salah,MID,38,3254,22,12,1,0,Liverpool
Morgan Gibbs-White,MID,26,645,0,1,1,0,Wolves
Moussa Sissoko,MID,29,2329,0,3,2,0,Spurs
N'Golo Kanté,MID,36,3092,4,4,3,0,Chelsea
Naby Keita,MID,25,1385,2,1,0,0,Liverpool
Nathan Aké,DEF,38,3411,4,1,3,0,Bournemouth
Nathan Redmond,MID,38,3272,6,5,3,0,Southampton
Neeskens Kebano,MID,7,101,0,0,0,0,Fulham
Nemanja Matic,MID,28,2437,1,0,6,1,Man Utd
Nick Pope,GK,0,0,0,0,0,0,Burnley
Nicolás Otamendi,DEF,18,1233,0,0,1,0,Man City
Oleksandr Zinchenko,DEF,14,1151,0,3,1,0,Man City
Olivier Giroud,FWD,27,828,2,4,1,0,Chelsea
Oriol Romeu Vidal,MID,31,2131,1,0,11,0,Southampton
Pascal Groß,MID,25,1864,3,3,1,0,Brighton
Patrick van Aanholt,DEF,36,3196,3,2,3,0,Crystal Palace
Paul Dummett,DEF,26,1986,0,0,1,0,Newcastle
Paul Pogba,MID,35,3007,13,10,6,0,Man Utd
Phil Bardsley,DEF,19,1670,0,0,9,0,Burnley
Phil Foden,MID,13,328,1,0,0,0,Man City
Phil Jagielka,DEF,7,329,1,0,0,1,Everton
Phil Jones,DEF,18,1261,0,1,1,0,Man Utd
Pierre-Emerick Aubameyang,MID,36,2722,22,7,0,0,Arsenal
Pierre-Emile Højbjerg,MID,31,2760,4,3,7,2,Southampton
Raheem Sterling,MID,34,2770,17,15,3,0,Man City
Raúl Jiménez,FWD,38,3112,13,10,4,0,Wolves
Reiss Nelson,MID,0,0,0,0,0,0,Arsenal
Ricardo Domingos Barbosa Pereira,DEF,35,3123,2,8,7,0,Leicester
Richarlison de Andrade,FWD,35,2662,13,3,5,1,Everton
Riyad Mahrez,MID,27,1331,7,4,0,0,Man City
Robbie Brady,MID,16,714,0,1,3,1,Burnley
Roberto Firmino,FWD,34,2606,12,8,0,0,Liverpool
Robert Snodgrass,MID,33,2215,2,5,10,0,West Ham
Rob Holding,DEF,10,806,0,0,1,0,Arsenal
Romain Saïss,DEF,19,1142,2,0,7,0,Wolves
Ross Barkley,MID,27,1231,3,5,1,0,Chelsea
Ruben Loftus-Cheek,MID,24,980,6,2,0,0,Chelsea
Rui Pedro dos Santos Patrício,GK,37,3330,0,0,0,0,Wolves
Ryan Bennett,DEF,34,3060,1,0,12,0,Wolves
Ryan Bertrand,DEF,24,2160,1,0,8,0,Southampton
Ryan Fraser,MID,38,3165,7,14,2,0,Bournemouth
Ryan Fredericks,DEF,15,1084,1,0,5,0,West Ham
Ryan Sessegnon,DEF,35,2291,2,7,0,0,Fulham
Rúben Diogo da Silva Neves,MID,35,3006,4,3,8,0,Wolves
Rúben Gonçalo Silva Nascimento Vinagre,DEF,17,703,0,0,1,0,Wolves
Sadio Mané,MID,36,3076,22,3,2,0,Liverpool
Scott Dann,DEF,10,661,0,1,1,0,Crystal Palace
Scott McTominay,MID,16,862,2,0,1,0,Man Utd
Sead Kolasinac,DEF,24,1886,0,7,5,0,Arsenal
Seamus Coleman,DEF,29,2558,2,2,1,0,Everton
Serge Aurier,DEF,8,562,0,2,1,0,Spurs
Sergio Agüero,FWD,33,2457,21,11,4,0,Man City
Sergio Romero,GK,0,0,0,0,0,0,Man Utd
Shane Duffy,DEF,35,3087,5,2,4,1,Brighton
Shane Long,FWD,26,1260,5,2,3,0,Southampton
Shkodran Mustafi,DEF,31,2611,2,0,9,0,Arsenal
Sofiane Boufal,MID,0,0,0,0,0,0,Southampton
Sokratis Papastathopoulos,DEF,25,2198,1,2,12,0,Arsenal
Solomon March,MID,35,2459,1,6,1,0,Brighton
Stefan Johansen,MID,12,409,0,0,4,0,Fulham
Stuart Armstrong,MID,29,1421,3,4,2,0,Southampton
Tammy Abraham,FWD,0,0,0,0,0,0,Chelsea
Terence Kongolo,DEF,32,2716,1,1,4,0,Huddersfield
Theo Walcott,MID,37,2108,5,3,1,0,Everton
Timothy Fosu-Mensah,DEF,12,791,0,0,3,0,Fulham
Tim Ream,DEF,26,2046,0,0,1,0,Fulham
Toby Alderweireld,DEF,34,2921,0,0,3,0,Spurs
Tom Cairney,MID,31,2188,1,1,0,0,Fulham
Tom Davies,MID,16,975,0,0,3,0,Everton
Tom Heaton,GK,19,1710,0,0,3,0,Burnley
Trent Alexander-Arnold,DEF,29,2460,1,13,3,0,Liverpool
Tyrone Mings,DEF,5,141,0,0,0,0,Bournemouth
Vicente Guaita,GK,20,1754,0,0,2,0,Crystal Palace
Victor Lindelöf,DEF,30,2600,1,1,1,0,Man Utd
Virgil van Dijk,DEF,38,3384,4,4,1,0,Liverpool
Wayne Hennessey,GK,18,1575,0,0,0,0,Crystal Palace
Wes Morgan,DEF,22,1924,3,0,1,2,Leicester
Wilfred Ndidi,MID,38,3295,2,0,8,0,Leicester
Wilfried Zaha,MID,34,3037,10,11,8,1,Crystal Palace
Willian Borges Da Silva,MID,32,2091,3,7,2,0,Chelsea
Willy Boly,DEF,36,3168,4,0,2,1,Wolves
Willy Caballero,GK,2,180,0,0,0,0,Chelsea
Will Norris,GK,1,1,0,0,0,0,Wolves
Xherdan Shaqiri,MID,24,1052,6,5,2,0,Liverpool
Yerry Mina,DEF,13,891,1,0,3,0,Everton
Yoshinori Muto,FWD,17,514,1,0,1,0,Newcastle
Yves Bissouma,MID,28,1764,0,0,5,0,Brighton
Kurt Zouma,DEF,32,2613,2,2,3,1,Everton
Nampalys Mendy,MID,31,2085,0,1,5,0,Leicester
Sean Longstaff,MID,9,686,1,1,2,0,Newcastle
Dwight McNeil,MID,21,1590,3,4,2,0,Burnley
Paulo Gazzaniga,GK,3,270,0,0,0,0,Spurs
Grady Diangana,MID,17,600,0,1,0,0,West Ham
Emiliano Martínez,GK,0,0,0,0,0,0,Arsenal
Oliver Skipp,MID,8,214,0,0,0,0,Spurs
Zeze Steven Sessegnon,DEF,0,0,0,0,0,0,Fulham
Divock Origi,FWD,12,364,3,1,0,0,Liverpool
Conor Coventry,MID,0,0,0,0,0,0,West Ham
Juan Foyth,DEF,12,888,1,0,3,1,Spurs
Michael Obafemi,FWD,6,134,1,1,1,0,Southampton
Edward Nketiah,FWD,5,63,1,0,0,0,Arsenal
Yan Valery,DEF,23,1709,2,1,3,1,Southampton
Ben White,DEF,0,0,0,0,0,0,Brighton
Bukayo Saka,MID,1,7,0,0,0,0,Arsenal
Kayne Ramsay,DEF,1,90,0,0,0,0,Southampton
Joseph Willock,MID,2,63,0,0,0,0,Arsenal
Max Kilman,DEF,1,1,0,0,0,0,Wolves
