name,position,game_played,minutes_played,goals,assists,yellow_cards,red_cards,team
Aaron Connolly,FWD,17,783,2,1,0,0,Brighton
Aaron Cresswell,DEF,36,3170,0,11,3,0,West Ham
Aaron Mooy,MID,0,0,0,0,0,0,Brighton
Aaron Ramsdale,GK,38,3420,0,0,1,0,Sheffield Utd
Abdoulaye Doucouré,MID,29,2443,2,3,6,0,Everton
Aboubakar Kamara,MID,11,307,0,0,1,1,Fulham
Adama Traoré,MID,37,2640,2,4,4,0,Wolves
Adam Forshaw,MID,0,0,0,0,0,0,Leeds
Adam Lallana,MID,30,1584,1,1,0,0,Brighton
Adam Webster,DEF,29,2594,1,0,4,0,Brighton
Adrien Silva,MID,0,0,0,0,0,0,Leicester
Adrián San Miguel del Castillo,GK,3,270,0,0,0,0,Liverpool
Ahmed El-Sayed Hegazy,DEF,1,90,0,0,0,0,West Brom
Albian Ajeti,FWD,0,0,0,0,0,0,West Ham
Aleksandar Mitrović,FWD,27,1389,3,3,3,0,Fulham
Alexandre Lacazette,FWD,31,1916,13,3,3,0,Arsenal
Alexis Mac Allister,MID,21,1108,1,1,1,0,Brighton
Alex Iwobi,MID,30,1530,1,3,0,0,Everton
Alex McCarthy,GK,30,2700,0,0,2,0,Southampton
Alex Oxlade-Chamberlain,MID,13,243,1,1,0,0,Liverpool
Alfie Mawson,DEF,0,0,0,0,0,0,Fulham
Alireza Jahanbakhsh,MID,21,520,0,1,3,0,Brighton
Alisson Ramses Becker,GK,33,2970,1,0,1,0,Liverpool
Allan Marques Loureiro,MID,24,2050,0,0,6,0,Everton
Allan Saint-Maximin,MID,25,1554,3,5,0,0,Newcastle
Alphonse Areola,GK,36,3240,0,0,2,0,Fulham
Andreas Christensen,DEF,17,1371,0,0,2,1,Chelsea
Andrew Robertson,DEF,38,3384,1,8,2,0,Liverpool
Andriy Yarmolenko,MID,15,362,0,1,3,0,West Ham
Andros Townsend,MID,34,2250,1,5,0,0,Crystal Palace
André Filipe Tavares Gomes,MID,28,1559,0,1,3,0,Everton
André-Frank Zambo Anguissa,MID,36,2581,0,3,6,0,Fulham
Andy Carroll,FWD,18,380,1,1,1,0,Newcastle
Angelo Ogbonna,DEF,28,2492,3,0,5,0,West Ham
Angus Gunn,GK,0,0,0,0,0,0,Southampton
Anthony Gordon,MID,3,87,0,0,0,0,Everton
Anthony Knockaert,MID,0,0,0,0,0,0,Fulham
Antonee Robinson,DEF,28,2159,0,0,4,1,Fulham
Antonio Rüdiger,DEF,19,1710,1,0,0,0,Chelsea
Arthur Masuaku,DEF,12,1006,0,2,2,0,West Ham
Ayoze Pérez,MID,25,1322,2,1,2,0,Leicester
Bamidele Alli,MID,15,613,0,2,0,0,Spurs
Barry Douglas,DEF,0,0,0,0,0,0,Leeds
Benjamin Chilwell,DEF,27,2286,3,6,3,0,Chelsea
Ben Davies,DEF,20,1340,0,2,1,0,Spurs
Ben Johnson,DEF,14,516,1,0,1,0,West Ham
Ben Osborn,MID,24,1599,1,0,1,0,Sheffield Utd
Ben White,DEF,36,3192,0,0,3,1,Brighton
Bernardo Fernandes da Silva Junior,DEF,3,205,0,0,0,0,Brighton
Bernard Anício Caldeira Duarte,MID,12,447,1,0,2,0,Everton
Bernd Leno,GK,35,3131,0,0,0,1,Arsenal
Billy Gilmour,MID,5,259,0,0,0,0,Chelsea
Billy Sharp,FWD,16,725,3,0,1,0,Sheffield Utd
Bobby Decordova-Reid,FWD,33,2367,5,3,7,0,Fulham
Brandon Pierrick,MID,0,0,0,0,0,0,Crystal Palace
Bruno André Cavaco Jordao,MID,0,0,0,0,0,0,Wolves
Bukayo Saka,MID,32,2554,5,5,1,0,Arsenal
Callum Hudson-Odoi,MID,23,1050,2,3,0,0,Chelsea
Callum Robinson,FWD,28,1552,5,3,0,0,West Brom
Callum Wilson,FWD,26,2081,12,6,2,0,Newcastle
Calum Chambers,DEF,10,751,0,3,0,0,Arsenal
Cameron Carter-Vickers,DEF,0,0,0,0,0,0,Spurs
Cedric Kipre,DEF,0,0,0,0,0,0,West Brom
Cenk Tosun,FWD,5,44,0,0,1,0,Everton
Charlie Austin,FWD,5,135,0,0,0,0,West Brom
Cheikhou Kouyaté,MID,36,3121,1,0,4,0,Crystal Palace
Che Adams,FWD,36,2662,9,7,1,0,Southampton
Christian Atsu,MID,0,0,0,0,0,0,Newcastle
Christian Benteke,FWD,30,1808,10,2,1,1,Crystal Palace
Christian Fuchs,DEF,9,701,0,0,4,0,Leicester
Christian Pulisic,MID,27,1731,4,3,2,0,Chelsea
Christian Walton,GK,0,0,0,0,0,0,Brighton
Chris Basham,DEF,31,2576,0,1,5,0,Sheffield Utd
Ciaran Clark,DEF,22,1890,1,0,3,0,Newcastle
Connor Wickham,FWD,0,0,0,0,0,0,Crystal Palace
Conor Coady,DEF,37,3303,1,0,5,0,Wolves
Conor Townsend,DEF,25,2234,0,2,0,0,West Brom
Curtis Jones,MID,24,1169,1,2,2,0,Liverpool
Cyrus Christie,DEF,0,0,0,0,0,0,Fulham
Cédric Soares,DEF,10,744,0,1,1,0,Arsenal
César Azpilicueta,DEF,26,2187,1,2,5,1,Chelsea
Dale Stephens,MID,7,257,0,0,1,0,Burnley
Daniel Amartey,DEF,12,718,1,0,3,0,Leicester
Daniel Castelo Podence,MID,24,1661,3,2,3,0,Wolves
Daniel Ceballos Fernández,MID,25,1609,0,4,4,0,Arsenal
Danny Ings,FWD,29,2172,12,4,1,0,Southampton
Danny Rose,DEF,0,0,0,0,0,0,Spurs
Danny Ward,GK,0,0,0,0,0,0,Leicester
Dan Burn,DEF,27,2057,1,0,5,0,Brighton
Dara O'Shea,DEF,28,2099,0,0,3,0,West Brom
Darnell Furlong,DEF,35,2931,1,3,5,0,West Brom
Darren Randolph,GK,3,270,0,0,0,0,West Ham
David Button,GK,1,90,0,0,0,0,West Brom
David Luiz Moreira Marinho,DEF,20,1396,1,0,1,1,Arsenal
David Martin,GK,0,0,0,0,0,0,West Ham
David McGoldrick,FWD,35,2391,8,1,7,0,Sheffield Utd
Davinson Sánchez,DEF,18,1486,0,0,1,0,Spurs
Davy Pröpper,MID,7,209,0,0,0,0,Brighton
DeAndre Yedlin,DEF,6,435,0,0,0,0,Newcastle
Declan Rice,MID,32,2880,2,1,2,0,West Ham
Demarai Gray,MID,1,18,0,0,0,0,Leicester
Denis Odoi,DEF,3,270,0,0,1,0,Fulham
Dennis Praet,MID,15,714,1,2,0,0,Leicester
Diogo Jota,MID,19,1106,9,0,2,0,Liverpool
Divock Origi,FWD,9,180,0,0,0,0,Liverpool
Dominic Calvert-Lewin,FWD,33,2871,16,6,3,0,Everton
Dwight Gayle,FWD,18,501,1,1,0,0,Newcastle
Eberechi Eze,MID,34,2555,4,8,3,0,Crystal Palace
Edward Nketiah,FWD,17,411,2,1,0,0,Arsenal
Emerson Palmieri dos Santos,DEF,2,88,0,0,0,0,Chelsea
Emile Smith Rowe,MID,20,1438,2,5,0,0,Arsenal
Emiliano Martínez,GK,38,3420,0,0,1,0,Aston Villa
Emil Krafth,DEF,16,1286,1,1,4,0,Newcastle
Enda Stevens,DEF,30,2700,0,1,6,0,Sheffield Utd
Eric Dier,DEF,28,2520,0,0,3,0,Spurs
Erik Lamela,MID,23,700,1,1,4,1,Spurs
Ethan Ampadu,DEF,25,2087,0,0,3,0,Sheffield Utd
Ezgjan Alioski,DEF,36,2456,2,3,7,0,Leeds
Fabian Delph,MID,8,260,0,0,1,0,Everton
Fabian Schär,DEF,18,1255,1,0,4,1,Newcastle
Fabio Henrique Tavares,MID,30,2566,0,2,6,0,Liverpool
Fabio Silva,FWD,32,1352,4,3,2,0,Wolves
Fabián Balbuena,DEF,14,1197,1,0,1,1,West Ham
Fabricio Agosto Ramírez,GK,0,0,0,0,0,0,Fulham
Federico Fernández,DEF,24,2080,0,0,4,0,Newcastle
Felipe Anderson Pereira Gomes,MID,2,2,0,0,0,0,West Ham
Fernando Marçal,DEF,13,618,0,0,2,0,Wolves
Fikayo Tomori,DEF,1,45,0,0,0,0,Chelsea
Filip Benkovic,DEF,0,0,0,0,0,0,Leicester
Florian Lejeune,DEF,0,0,0,0,0,0,Newcastle
Florin Andone,FWD,0,0,0,0,0,0,Brighton
Francisco Casilla Cortés,GK,3,270,0,0,0,0,Leeds
Fraser Forster,GK,8,720,0,0,0,0,Southampton
Gabriel Teodoro Martinelli Silva,MID,14,582,2,1,0,0,Arsenal
Gabriel Magalhães,DEF,23,1996,2,0,2,1,Arsenal
Gary Cahill,DEF,20,1800,1,1,3,0,Crystal Palace
Gedson Carvalho Fernandes,MID,0,0,0,0,0,0,Spurs
George Baldock,DEF,32,2787,0,2,7,0,Sheffield Utd
Georginio Wijnaldum,MID,38,2938,2,1,1,0,Liverpool
Giovani Lo Celso,MID,18,939,1,1,5,0,Spurs
Glenn Murray,FWD,0,0,0,0,0,0,Brighton
Grady Diangana,MID,20,1230,1,0,0,0,West Brom
Granit Xhaka,MID,31,2519,1,2,7,1,Arsenal
Gylfi Sigurdsson,MID,36,2244,6,5,2,0,Everton
Hakim Ziyech,MID,23,1164,2,3,3,0,Chelsea
Hal Robson-Kanu,FWD,19,544,2,0,2,0,West Brom
Hamza Choudhury,MID,10,311,0,0,1,0,Leicester
Harrison Reed,MID,31,2243,0,3,5,0,Fulham
Harry Kane,FWD,35,3083,23,14,1,0,Spurs
Harry Wilson,MID,0,0,0,0,0,0,Liverpool
Harry Winks,MID,15,856,0,0,5,0,Spurs
Harvey Barnes,MID,25,1944,9,5,0,0,Leicester
Harvey Elliott,MID,0,0,0,0,0,0,Liverpool
Heung-Min Son,MID,37,3119,17,11,0,0,Spurs
Hugo Lloris,GK,38,3420,0,0,0,0,Spurs
Héctor Bellerín,DEF,25,2089,1,3,8,0,Arsenal
Hélder Wander Sousa de Azevedo e Costa,MID,22,1150,3,4,0,0,Leeds
Ian Carlo Poveda-Ocampo,MID,14,344,0,0,0,0,Leeds
Illan Meslier,GK,35,3150,0,0,0,0,Leeds
Isaac Hayden,MID,24,1942,0,0,8,0,Newcastle
Issa Diop,DEF,18,1379,2,0,3,0,West Ham
Ivan Ricardo Neves Abreu Cavaleiro,MID,36,2465,3,0,2,0,Fulham
Jack Harrison,MID,36,2846,8,10,2,0,Leeds
Jack O'Connell,DEF,2,180,0,0,0,0,Sheffield Utd
Jack Robinson,DEF,11,875,0,2,3,0,Sheffield Utd
Jack Stephens,DEF,18,1537,0,0,2,0,Southampton
Jack Wilshere,MID,0,0,0,0,0,0,West Ham
Jacob Murphy,MID,26,1617,2,3,3,0,Newcastle
Jairo Riedewald,MID,33,1810,2,0,4,0,Crystal Palace
Jake Livermore,MID,18,1241,0,0,2,1,West Brom
Jake Vokins,DEF,1,66,0,0,0,0,Southampton
Jamaal Lascelles,DEF,19,1625,2,0,4,0,Newcastle
Jamal Lewis,DEF,24,1833,0,1,4,0,Newcastle
James Justin,DEF,23,2070,2,2,4,0,Leicester
James Maddison,MID,31,2093,8,7,4,0,Leicester
James McArthur,MID,18,1465,0,2,3,0,Crystal Palace
James McCarthy,MID,16,816,0,0,1,0,Crystal Palace
James Milner,MID,26,1056,0,2,3,0,Liverpool
James Rodríguez,MID,23,1763,6,5,4,0,Everton
James Tomkins,DEF,8,551,0,0,1,0,Crystal Palace
James Ward-Prowse,MID,38,3420,8,7,5,0,Southampton
Jamie Shackleton,MID,13,454,0,0,0,0,Leeds
Jamie Vardy,FWD,34,2838,15,14,1,0,Leicester
Jannik Vestergaard,DEF,30,2574,3,1,3,1,Southampton
Jan Bednarek,DEF,36,3100,1,1,5,1,Southampton
Japhet Tanganga,DEF,6,487,0,0,2,0,Spurs
Jarrad Branthwaite,DEF,0,0,0,0,0,0,Everton
Jarrod Bowen,MID,38,2556,8,6,0,0,West Ham
Jason Steele,GK,0,0,0,0,0,0,Brighton
Javier Manquillo,DEF,13,822,0,0,1,0,Newcastle
Jay-Roy Grot,MID,0,0,0,0,0,0,Leeds
Jayden Bogle,DEF,16,1107,2,0,2,0,Sheffield Utd
Jean Michaël Seri,MID,0,0,0,0,0,0,Fulham
Jean-Philippe Gbamin,MID,1,11,0,0,0,0,Everton
Jeffrey Schlupp,MID,27,1415,2,3,3,0,Crystal Palace
Jeff Hendrick,MID,22,1418,2,1,1,1,Newcastle
Joelinton Cássio Apolinário de Lira,FWD,31,1979,4,2,3,0,Newcastle
Joel Matip,DEF,10,690,1,2,2,0,Liverpool
Joel Ward,DEF,26,2255,0,1,5,0,Crystal Palace
Joe Bryan,DEF,16,663,1,1,2,0,Fulham
Joe Hart,GK,0,0,0,0,0,0,Spurs
John Egan,DEF,31,2628,0,1,7,1,Sheffield Utd
John Fleck,MID,31,2573,0,3,4,0,Sheffield Utd
John Lundstram,MID,28,2027,0,2,8,1,Sheffield Utd
John Ruddy,GK,2,91,0,0,0,0,Wolves
Jonas Lössl,GK,0,0,0,0,0,0,Everton
Jonathan Castro Otto,DEF,7,496,0,0,0,0,Wolves
Jonathan Leko,MID,0,0,0,0,0,0,West Brom
Jonjoe Kenny,DEF,4,78,0,0,0,0,Everton
Jonjo Shelvey,MID,30,2616,1,3,7,0,Newcastle
Jonny Evans,DEF,28,2473,2,2,7,0,Leicester
Jordan Ayew,FWD,33,2086,1,4,4,0,Crystal Palace
Jordan Henderson,MID,21,1704,1,2,0,0,Liverpool
Jordan Hugill,FWD,0,0,0,0,0,0,West Ham
Jordan Pickford,GK,31,2742,0,0,1,0,Everton
Jordan Stevens,MID,0,0,0,0,0,0,Leeds
Jorge Luiz Frello Filho,MID,28,2006,7,2,2,0,Chelsea
Joseph Gomez,DEF,7,589,0,0,0,0,Liverpool
Josh Onomah,MID,11,369,0,0,1,0,Fulham
Josh Sims,MID,0,0,0,0,0,0,Southampton
José Izquierdo,MID,1,8,0,0,0,0,Brighton
João Filipe Iria Santos Moutinho,MID,33,2526,1,1,3,1,Wolves
João Virgínia,GK,1,47,0,0,0,0,Everton
Joël Veltman,DEF,28,2280,1,1,3,0,Brighton
Juan Foyth,DEF,0,0,0,0,0,0,Spurs
Kai Havertz,MID,27,1512,4,6,2,0,Chelsea
Kalvin Phillips,MID,29,2428,1,2,10,0,Leeds
Kamil Grosicki,MID,3,147,0,1,0,0,West Brom
Kamil Miazek,GK,0,0,0,0,0,0,Leeds
Karl Darlow,GK,25,2250,0,0,3,0,Newcastle
Kasper Schmeichel,GK,38,3420,0,0,0,0,Leicester
Kelechi Iheanacho,FWD,25,1452,12,2,1,0,Leicester
Kelland Watts,DEF,0,0,0,0,0,0,Newcastle
Kenneth Zohore,FWD,0,0,0,0,0,0,West Brom
Kenny Tete,DEF,22,1477,0,1,3,0,Fulham
Kepa Arrizabalaga,GK,7,585,0,0,1,0,Chelsea
Kevin McDonald,MID,0,0,0,0,0,0,Fulham
Kieran Gibbs,DEF,10,810,0,0,1,1,West Brom
Kieran Tierney,DEF,27,2299,1,4,4,0,Arsenal
Konstantinos Tsimikas,DEF,2,6,0,0,0,0,Liverpool
Kurt Zouma,DEF,24,2027,5,0,3,0,Chelsea
Kyle Bartley,DEF,30,2583,3,1,4,0,West Brom
Kyle Edwards,MID,5,114,0,0,0,0,West Brom
Kyle Walker-Peters,DEF,30,2646,0,3,4,0,Southampton
Leander Dendoncker,MID,33,2498,1,2,4,0,Wolves
Leandro Trossard,MID,35,2602,5,6,2,0,Brighton
Leif Davis,DEF,2,31,0,0,0,0,Leeds
Leonardo Campana,FWD,0,0,0,0,0,0,Wolves
Lewis Dunk,DEF,33,2932,5,0,5,2,Brighton
Liam Cooper,DEF,25,2186,1,0,4,1,Leeds
Lucas Digne,DEF,30,2681,0,9,2,1,Everton
Lucas Rodrigues Moura da Silva,MID,30,1397,3,5,1,0,Spurs
Lucas Torreira,MID,0,0,0,0,0,0,Arsenal
Lukasz Fabianski,GK,35,3150,0,0,2,0,West Ham
Luka Milivojevic,MID,31,2357,1,1,8,1,Crystal Palace
Luke Ayling,DEF,38,3399,0,0,7,0,Leeds
Luke Freeman,MID,0,0,0,0,0,0,Sheffield Utd
Luke Thomas,DEF,14,968,1,0,2,0,Leicester
Lys Mousset,FWD,11,287,0,0,0,0,Sheffield Utd
Léo Bonatini,FWD,0,0,0,0,0,0,Wolves
Mamadou Sakho,DEF,4,275,0,0,0,0,Crystal Palace
Manuel Lanzini,MID,17,556,1,1,1,0,West Ham
Marcos Alonso,DEF,13,958,2,1,2,0,Chelsea
Marcus Bettinelli,GK,0,0,0,0,0,0,Fulham
Marc Albrighton,MID,31,1735,1,7,2,0,Leicester
Marek Rodák,GK,2,180,0,0,0,0,Fulham
Mario Lemina,MID,28,1696,1,1,5,0,Fulham
Mark Gillespie,GK,0,0,0,0,0,0,Newcastle
Mark Noble,MID,21,701,0,0,1,0,West Ham
Martin Dubravka,GK,13,1170,0,0,0,0,Newcastle
Martin Kelly,DEF,1,1,0,0,0,0,Crystal Palace
Martín Montoya,DEF,0,0,0,0,0,0,Brighton
Mason Holgate,DEF,28,2286,1,0,9,0,Everton
Mason Mount,MID,36,2887,6,7,2,0,Chelsea
Mateo Kovacic,MID,27,1809,0,1,4,0,Chelsea
Mateusz Klich,MID,35,2386,4,5,6,0,Leeds
Matheus Pereira,MID,33,2574,11,7,2,1,West Brom
Matija Sarkic,GK,0,0,0,0,0,0,Wolves
Matteo Guendouzi,MID,0,0,0,0,0,0,Arsenal
Matthew Clarke,DEF,0,0,0,0,0,0,Brighton
Matthew Longstaff,MID,5,376,0,0,0,0,Newcastle
Matty James,MID,0,0,0,0,0,0,Leicester
Matt Doherty,DEF,17,1238,0,2,2,1,Spurs
Matt Macey,GK,0,0,0,0,0,0,Arsenal
Matt Phillips,MID,33,1815,2,1,1,0,West Brom
Matt Ritchie,MID,18,1347,0,5,2,0,Newcastle
Maxime Le Marchand,DEF,2,122,0,0,2,0,Fulham
Max Kilman,DEF,18,1307,0,1,4,0,Wolves
Max Lowe,DEF,8,549,0,0,1,0,Sheffield Utd
Max Meyer,MID,0,0,0,0,0,0,Crystal Palace
Mesut Özil,MID,0,0,0,0,0,0,Arsenal
Michael Hector,DEF,4,262,0,0,2,0,Fulham
Michael Keane,DEF,35,2989,3,1,4,0,Everton
Michael Obafemi,FWD,4,57,0,0,0,0,Southampton
Michail Antonio,FWD,26,1972,10,5,3,0,West Ham
Michy Batshuayi,FWD,18,717,2,2,0,0,Crystal Palace
Miguel Almirón,MID,34,2426,4,2,3,0,Newcastle
Mohamed Naser El Sayed Elneny,MID,23,1538,1,0,3,0,Arsenal
Mohamed Salah,MID,37,3077,22,6,0,0,Liverpool
Mohammed Salisu,DEF,12,841,0,0,1,0,Southampton
Moise Kean,FWD,2,13,0,0,0,0,Everton
Morgan Gibbs-White,MID,11,407,1,0,1,0,Wolves
Moussa Djenepo,MID,27,1229,1,2,5,0,Southampton
Moussa Sissoko,MID,25,1576,0,0,3,0,Spurs
N'Golo Kanté,MID,30,2140,0,2,7,0,Chelsea
Naby Keita,MID,10,517,0,0,1,0,Liverpool
Nampalys Mendy,MID,23,1452,0,1,5,0,Leicester
Nathan Ferguson,DEF,0,0,0,0,0,0,Crystal Palace
Nathan Redmond,MID,29,1727,2,3,1,0,Southampton
Nathan Tella,MID,18,735,1,2,2,0,Southampton
Neal Maupay,FWD,33,2508,8,2,1,1,Brighton
Neco Williams,DEF,6,247,0,0,1,0,Liverpool
Neeskens Kebano,MID,5,116,0,0,0,0,Fulham
Nicolas Pépé,MID,29,1606,10,3,1,1,Arsenal
Oliver Burke,MID,25,1260,1,2,2,0,Sheffield Utd
Oliver Casey,DEF,0,0,0,0,0,0,Leeds
Oliver McBurnie,FWD,23,1316,1,2,2,0,Sheffield Utd
Oliver Norwood,MID,32,2214,0,0,6,0,Sheffield Utd
Oliver Skipp,MID,0,0,0,0,0,0,Spurs
Olivier Giroud,FWD,17,740,4,0,1,0,Chelsea
Oluwasemilogo Adesewo Ibidapo Ajayi,DEF,33,2779,2,1,3,1,West Brom
Oriol Romeu Vidal,MID,21,1762,1,1,6,0,Southampton
Oskar Buur,DEF,1,22,0,0,0,0,Wolves
Pablo Fornals,MID,33,2571,5,7,3,0,West Ham
Pablo Hernández Domínguez,MID,16,414,0,3,1,0,Leeds
Pablo Marí,DEF,10,900,0,0,2,0,Arsenal
Pascal Groß,MID,34,2479,3,8,3,0,Brighton
Pascal Struijk,DEF,27,2072,1,0,3,0,Leeds
Patrick Bamford,FWD,38,3052,17,11,3,0,Leeds
Patrick van Aanholt,DEF,22,1775,0,2,2,0,Crystal Palace
Paulo Gazzaniga,GK,0,0,0,0,0,0,Spurs
Paul Dummett,DEF,15,1254,1,0,2,0,Newcastle
Pedro Lomba Neto,MID,31,2549,5,8,4,0,Wolves
Phil Jagielka,DEF,10,524,0,0,1,1,Sheffield Utd
Pierre-Emerick Aubameyang,MID,29,2330,10,3,2,0,Arsenal
Pierre-Emile Højbjerg,MID,38,3420,2,4,9,0,Spurs
Raúl Jiménez,FWD,10,824,4,1,0,0,Wolves
Reece James,DEF,32,2367,1,3,3,0,Chelsea
Reiss Nelson,MID,2,70,0,0,0,0,Arsenal
Rekeem Harper,MID,2,30,0,0,0,0,West Brom
Rhian Brewster,FWD,27,1113,0,0,1,0,Sheffield Utd
Ricardo Domingos Barbosa Pereira,DEF,15,954,0,1,3,0,Leicester
Richarlison de Andrade,FWD,34,2862,7,6,4,1,Everton
Roberto Firmino,FWD,36,2837,9,8,2,0,Liverpool
Roberto Jimenez Gago,GK,0,0,0,0,0,0,West Ham
Robert Snodgrass,MID,11,528,0,0,2,0,West Brom
Robin Koch,DEF,17,1130,0,0,1,0,Leeds
Rob Holding,DEF,30,2557,0,1,2,0,Arsenal
Rodrigo Moreno,FWD,26,1279,7,4,3,0,Leeds
Rolando Aarons,MID,0,0,0,0,0,0,Newcastle
Romaine Sawyers,MID,19,1486,0,0,2,0,West Brom
Romain Saïss,DEF,27,2407,3,0,2,0,Wolves
Ross Barkley,MID,26,1566,3,2,0,0,Aston Villa
Ruben Loftus-Cheek,MID,31,1962,1,0,3,0,Fulham
Rui Pedro dos Santos Patrício,GK,37,3330,0,0,1,0,Wolves
Ryan Bennett,DEF,0,0,0,0,0,0,Wolves
Ryan Bertrand,DEF,29,2598,0,2,5,0,Southampton
Ryan Fraser,MID,18,922,0,4,0,1,Newcastle
Ryan Fredericks,DEF,14,564,1,1,2,0,West Ham
Ryan Sessegnon,DEF,0,0,0,0,0,0,Spurs
Rúben Diogo da Silva Neves,MID,36,2670,5,1,8,0,Wolves
Rúben Gonçalo Silva Nascimento Vinagre,DEF,2,172,0,0,0,0,Wolves
Sadio Mané,MID,35,2808,11,11,3,0,Liverpool
Sam Field,MID,3,61,0,0,0,0,West Brom
Sam Johnstone,GK,37,3330,0,1,1,0,West Brom
Sam Woods,DEF,0,0,0,0,0,0,Crystal Palace
Sander Berge,MID,15,1119,1,1,4,0,Sheffield Utd
Scott Dann,DEF,15,1350,1,1,1,0,Crystal Palace
Sead Kolasinac,DEF,1,90,0,0,0,0,Arsenal
Seamus Coleman,DEF,25,1607,0,3,0,0,Everton
Sean Longstaff,MID,22,1405,0,1,2,0,Newcastle
Serge Aurier,DEF,19,1605,2,3,0,0,Spurs
Shane Duffy,DEF,0,0,0,0,0,0,Brighton
Shane Long,FWD,11,201,0,0,0,0,Southampton
Shkodran Mustafi,DEF,3,45,0,0,0,0,Arsenal
Simon Moore,GK,0,0,0,0,0,0,Sheffield Utd
Sofiane Boufal,MID,0,0,0,0,0,0,Southampton
Sokratis Papastathopoulos,DEF,0,0,0,0,0,0,Arsenal
Solomon March,MID,21,1670,2,2,0,0,Brighton
Stefan Johansen,MID,0,0,0,0,0,0,Fulham
Steven Alzate,MID,15,892,1,0,2,0,Brighton
Steven Bergwijn,MID,21,1202,1,4,3,0,Spurs
Stuart Armstrong,MID,33,2764,4,7,3,0,Southampton
Stuart Dallas,DEF,38,3410,8,3,7,0,Leeds
Sébastien Haller,FWD,16,932,3,0,0,0,West Ham
Tammy Abraham,FWD,22,1031,6,2,0,0,Chelsea
Tanguy Ndombele,MID,33,2086,3,3,3,0,Spurs
Tariq Lamptey,DEF,11,887,1,3,2,1,Brighton
Theo Walcott,MID,22,1629,3,4,0,0,Southampton
Thiago Thiago,DEF,23,1935,2,0,3,1,Chelsea
Timothy Castagne,DEF,27,2345,2,4,1,0,Leicester
Timo Werner,FWD,35,2598,6,12,2,0,Chelsea
Tim Ream,DEF,7,630,0,0,0,0,Fulham
Toby Alderweireld,DEF,25,2240,1,0,2,0,Spurs
Tomas Soucek,MID,38,3420,10,2,7,1,West Ham
Tom Cairney,MID,10,758,1,1,2,0,Fulham
Tom Davies,MID,25,1417,0,1,3,0,Everton
Trent Alexander-Arnold,DEF,36,3029,2,8,2,0,Liverpool
Tyler Roberts,MID,27,1330,1,2,3,0,Leeds
Tyrick Mitchell,DEF,19,1710,1,2,1,0,Crystal Palace
Vicente Guaita,GK,37,3330,0,0,2,0,Crystal Palace
Virgil van Dijk,DEF,5,370,1,0,1,0,Liverpool
Vitor Ferreira,MID,19,509,0,1,0,0,Wolves
Wayne Hennessey,GK,0,0,0,0,0,0,Crystal Palace
Wes Foderingham,GK,0,0,0,0,0,0,Sheffield Utd
Wes Morgan,DEF,3,16,0,0,0,0,Leicester
Wilfred Ndidi,MID,26,2175,1,4,6,0,Leicester
Wilfried Zaha,MID,30,2612,11,4,6,0,Crystal Palace
William Saliba,DEF,0,0,0,0,0,0,Arsenal
William Smallbone,MID,3,171,0,0,0,0,Southampton
Willian Borges Da Silva,MID,25,1398,1,7,0,0,Arsenal
Willy Boly,DEF,21,1879,1,1,2,0,Wolves
Willy Caballero,GK,1,90,0,0,0,0,Chelsea
Xherdan Shaqiri,MID,14,548,0,2,2,0,Liverpool
Yan Valery,DEF,3,101,0,0,0,0,Southampton
Yerry Mina,DEF,24,1936,2,0,2,0,Everton
Yoshinori Muto,FWD,0,0,0,0,0,0,Newcastle
Youri Tielemans,MID,38,3356,6,4,6,0,Leicester
Yves Bissouma,MID,36,3112,1,0,8,1,Brighton
Zeze Steven Sessegnon,DEF,0,0,0,0,0,0,Fulham
Çaglar Söyüncü,DEF,23,1816,1,0,2,0,Leicester
Aaron Wan-Bissaka,DEF,34,3060,2,5,3,0,Man Utd
Adrián Bernabé,MID,0,0,0,0,0,0,Man City
Ahmed El Mohamady,DEF,14,833,0,0,2,0,Aston Villa
Andreas Pereira,MID,0,0,0,0,0,0,Man Utd
Anthony Driscoll-Glennon,DEF,0,0,0,0,0,0,Burnley
Anthony Martial,FWD,22,1477,4,7,0,1,Man Utd
Anwar El Ghazi,MID,28,1604,10,0,2,0,Aston Villa
Ashley Barnes,FWD,22,1324,3,0,4,0,Burnley
Ashley Westwood,MID,38,3410,3,4,7,0,Burnley
Axel Tuanzebe,DEF,9,402,0,0,2,0,Man Utd
Aymeric Laporte,DEF,16,1343,0,0,1,0,Man City
Bailey Peacock-Farrell,GK,4,360,0,0,0,0,Burnley
Benjamin Mendy,DEF,13,951,2,1,2,0,Man City
Ben Gibson,DEF,0,0,0,0,0,0,Burnley
Ben Mee,DEF,30,2693,2,0,3,0,Burnley
Bernardo Mota Veiga de Carvalho e Silva,MID,26,2063,2,7,5,0,Man City
Bjorn Engels,DEF,0,0,0,0,0,0,Aston Villa
Bobby Thomas,DEF,0,0,0,0,0,0,Burnley
Brandon Williams,DEF,4,187,0,0,0,0,Man Utd
Branislav Ivanovic,DEF,13,764,0,0,2,0,West Brom
Bruno Miguel Borges Fernandes,MID,37,3101,18,14,6,0,Man Utd
Charlie Taylor,DEF,29,2425,0,2,1,0,Burnley
Chris Smalling,DEF,0,0,0,0,0,0,Man Utd
Chris Wood,FWD,33,2741,12,3,0,0,Burnley
Claudio Bravo,GK,0,0,0,0,0,0,Man City
Conor Hourihane,MID,4,225,1,1,0,0,Aston Villa
Daniel James,MID,15,907,3,1,3,0,Man Utd
David de Gea,GK,26,2295,0,0,0,0,Man Utd
Dean Henderson,GK,13,1125,0,0,3,0,Man Utd
Donny van de Beek,MID,19,511,1,2,1,0,Man Utd
Douglas Luiz Soares de Paulo,MID,33,2781,0,2,8,1,Aston Villa
Dwight McNeil,MID,36,3068,2,5,1,0,Burnley
Ederson Santana de Moraes,GK,36,3240,0,1,3,0,Man City
Elia Caprile,GK,0,0,0,0,0,0,Leeds
Eric Bailly,DEF,12,915,0,0,3,0,Man Utd
Eric Garcia,DEF,6,380,0,0,0,0,Man City
Erik Pieters,DEF,20,1260,0,3,1,0,Burnley
Ezri Konsa Ngoyo,DEF,36,3195,2,0,3,0,Aston Villa
Fernando Luiz Rosa,DEF,21,1182,0,2,6,0,Man City
Ferran Torres,MID,24,1297,7,4,1,0,Man City
Frederico Rodrigues de Paula Santos,MID,30,2389,1,0,5,0,Man Utd
Frédéric Guilbert,DEF,0,0,0,0,0,0,Aston Villa
Gabriel Fernando de Jesus,FWD,29,2056,9,5,2,0,Man City
Harry Maguire,DEF,34,3047,2,2,11,0,Man Utd
Henri Lansbury,MID,0,0,0,0,0,0,Aston Villa
Ilkay Gündogan,MID,28,2025,13,4,1,0,Man City
Indiana Vassilev,FWD,0,0,0,0,0,0,Aston Villa
Jack Cork,MID,16,1350,0,0,2,0,Burnley
Jack Grealish,MID,26,2183,6,12,6,0,Aston Villa
James Bree,DEF,0,0,0,0,0,0,Aston Villa
James Garner,MID,0,0,0,0,0,0,Man Utd
James Tarkowski,DEF,36,3240,1,0,6,0,Burnley
Jay Rodriguez,FWD,31,1248,1,3,3,0,Burnley
Jed Steer,GK,0,0,0,0,0,0,Aston Villa
Jimmy Dunne,DEF,3,270,1,0,1,0,Burnley
Johann Berg Gudmundsson,MID,22,1358,2,0,2,0,Burnley
John McGinn,MID,37,3330,3,7,12,0,Aston Villa
John Stones,DEF,22,1933,4,0,0,1,Man City
Josh Benson,MID,6,260,0,0,0,0,Burnley
Josh Brownhill,MID,33,2812,0,1,2,0,Burnley
José Diogo Dalot Teixeira,DEF,0,0,0,0,0,0,Man Utd
José Ignacio Peleteiro Romallo,MID,0,0,0,0,0,0,Aston Villa
João Pedro Cavaco Cancelo,DEF,28,2298,2,4,5,1,Man City
Juan Mata,MID,9,507,1,3,0,0,Man Utd
Keinan Davis,FWD,15,265,1,1,0,0,Aston Villa
Kevin De Bruyne,MID,25,1995,6,12,1,0,Man City
Kevin Long,DEF,8,636,0,0,2,0,Burnley
Kortney Hause,DEF,7,630,1,0,2,0,Aston Villa
Kyle Walker,DEF,24,1944,1,1,1,0,Man City
Liam Delap,FWD,1,39,0,0,0,0,Man City
Luke Shaw,DEF,32,2653,1,5,8,0,Man Utd
Mahmoud Ahmed Ibrahim Hassan,MID,21,1157,2,1,0,0,Aston Villa
Marcos Rojo,DEF,0,0,0,0,0,0,Man Utd
Marcus Rashford,MID,37,2917,11,11,4,0,Man Utd
Marvelous Nakamba,MID,13,747,0,1,3,0,Aston Villa
Mason Greenwood,MID,31,1813,7,2,2,0,Man Utd
Matej Vydra,FWD,28,1359,3,2,0,0,Burnley
Mateusz Bogusz,MID,0,0,0,0,0,0,Leeds
Matthew Cash,DEF,28,2373,0,2,6,1,Aston Villa
Matthew Lowton,DEF,34,3060,1,1,5,0,Burnley
Matt Targett,DEF,38,3404,0,4,7,0,Aston Villa
Mbwana Samatta,FWD,0,0,0,0,0,0,Aston Villa
Nathan Aké,DEF,10,797,1,0,4,0,Man City
Neil Taylor,DEF,1,15,0,0,1,0,Aston Villa
Nemanja Matic,MID,20,1101,0,1,2,0,Man Utd
Nick Pope,GK,32,2880,0,0,1,0,Burnley
Nicolás Otamendi,DEF,0,0,0,0,0,0,Man City
Odion Ighalo,FWD,1,9,0,0,0,0,Man Utd
Oleksandr Zinchenko,DEF,20,1473,0,0,0,0,Man City
Ollie Watkins,FWD,37,3328,14,9,2,1,Aston Villa
Paul Pogba,MID,26,1892,3,6,3,0,Man Utd
Phil Bardsley,DEF,4,273,0,0,2,0,Burnley
Phil Foden,MID,28,1607,9,8,0,0,Man City
Phil Jones,DEF,0,0,0,0,0,0,Man Utd
Raheem Sterling,MID,31,2534,10,9,4,0,Man City
Riyad Mahrez,MID,27,1945,9,8,0,0,Man City
Robbie Brady,MID,19,1047,1,1,3,0,Burnley
Rodrigo Hernandez,MID,34,2747,2,2,6,0,Man City
Ryan Inniss,DEF,0,0,0,0,0,0,Crystal Palace
Scott McTominay,MID,32,2124,4,2,3,0,Man Utd
Sergio Agüero,FWD,12,554,4,1,0,0,Man City
Sergio Romero,GK,0,0,0,0,0,0,Man Utd
Tahith Chong,MID,0,0,0,0,0,0,Man Utd
Teden Mengi,DEF,0,0,0,0,0,0,Man Utd
Thiago Alcántara do Nascimento,MID,24,1851,1,0,4,0,Liverpool
Timothy Fosu-Mensah,DEF,1,80,0,0,1,0,Man Utd
Tommy Doyle,MID,0,0,0,0,0,0,Man City
Tom Heaton,GK,0,0,0,0,0,0,Aston Villa
Tyrone Mings,DEF,36,3194,2,2,4,1,Aston Villa
Victor Lindelöf,DEF,29,2585,1,1,0,0,Man Utd
Wesley Moraes,FWD,3,15,0,0,0,0,Aston Villa
Zack Steffen,GK,1,90,0,0,0,0,Man City
Ørjan Nyland,GK,0,0,0,0,0,0,Aston Villa
Bertrand Traoré,MID,36,2315,7,7,1,0,Aston Villa
Cengiz Ünder,MID,9,275,0,2,0,0,Leicester
Cole Palmer,MID,0,0,0,0,0,0,Man City
Conor Gallagher,MID,30,2530,2,2,11,0,West Brom
Diego Llorente,DEF,15,1203,1,0,1,0,Leeds
Edouard Mendy,GK,31,2745,0,0,2,0,Chelsea
Gareth Bale,MID,20,912,11,3,1,0,Spurs
Jacob Ramsey,MID,22,611,0,0,0,0,Aston Villa
Jayson Molumby,MID,1,1,0,0,0,0,Brighton
Ki-Jana Hoever,DEF,12,573,0,0,1,0,Wolves
Mace Goodridge,MID,0,0,0,0,0,0,Burnley
Meritan Shabani,MID,0,0,0,0,0,0,Wolves
Nélson Cabral Semedo,DEF,34,2983,1,3,5,0,Wolves
Rúnar Alex Rúnarsson,GK,1,15,0,0,0,0,Arsenal
Sergio Reguilón,DEF,27,2244,0,6,5,0,Spurs
Ademola Lookman,MID,34,2746,4,4,5,0,Fulham
Caoimhin Kelleher,GK,2,180,0,0,0,0,Liverpool
Filip Krovinovic,MID,11,541,0,0,0,0,West Brom
Niels Nkounkou,DEF,2,80,0,0,1,0,Everton
Ola Aina,DEF,31,2664,2,1,3,0,Fulham
Rúben Santos Gato Alves Dias,DEF,32,2843,1,1,4,0,Man City
Vladimir Coufal,DEF,34,3054,0,9,3,0,West Ham
Wesley Fofana,DEF,28,2260,0,1,7,0,Leicester
Alex Nicolao Telles,DEF,9,689,0,2,0,0,Man Utd
Andi Zeqiri,FWD,9,164,0,0,0,0,Brighton
Ben Godfrey,DEF,31,2683,0,2,4,0,Everton
Carlos Vinicius Alves Morais,FWD,9,305,1,0,2,0,Spurs
Craig Dawson,DEF,22,1925,3,0,3,1,West Ham
Edinson Cavani,FWD,26,1364,10,4,4,0,Man Utd
Facundo Pellistri,MID,0,0,0,0,0,0,Man Utd
Ibrahima Diallo,MID,22,1010,0,0,3,0,Southampton
Islam Slimani,FWD,1,19,0,0,0,0,Leicester
Joachim Andersen,DEF,31,2729,1,1,6,1,Fulham
Karlan Grant,FWD,21,1120,1,0,1,0,West Brom
Michael Verrips,GK,0,0,0,0,0,0,Sheffield Utd
Nathaniel Clyne,DEF,13,1145,0,1,2,0,Crystal Palace
Owen Otasowie,MID,6,185,0,1,1,0,Wolves
Raphael Dias Belloli,MID,30,2358,6,10,3,0,Leeds
Rayan Ait Nouri,DEF,21,1400,1,1,1,0,Wolves
Robin Olsen,GK,7,630,0,0,1,0,Everton
Stephen Henderson,GK,0,0,0,0,0,0,Crystal Palace
Thomas Partey,MID,24,1529,0,2,5,0,Arsenal
Tosin Adarabioyo,DEF,33,2953,0,1,1,0,Fulham
Will Norris,GK,2,180,0,0,0,0,Burnley
Danny Welbeck,FWD,24,1541,6,4,0,0,Brighton
Nathaniel Phillips,DEF,17,1455,1,1,2,0,Liverpool
Jack Butland,GK,1,90,0,0,0,0,Crystal Palace
Terence Kongolo,DEF,1,90,0,0,0,0,Fulham
Joe Rodon,DEF,12,732,0,0,0,0,Spurs
Daniel N'Lundulu,FWD,13,102,0,0,0,0,Southampton
Saïd Benrahma,MID,30,1376,1,6,0,0,West Ham
James Trafford,GK,0,0,0,0,0,0,Man City
Max Thompson,FWD,0,0,0,0,0,0,Burnley
Robert Sánchez,GK,27,2430,0,0,2,0,Brighton
Rhys Williams,DEF,9,659,0,0,0,0,Liverpool
Ellis Simms,FWD,0,0,0,0,0,0,Everton
Karlo Ziger,GK,0,0,0,0,0,0,Chelsea
Lewis Richardson,FWD,2,3,0,0,0,0,Burnley
Lee Peltier,DEF,4,228,0,0,1,0,West Brom
Jack Jenkins,MID,0,0,0,0,0,0,Leeds
Kayne Ramsay,DEF,1,90,0,0,1,0,Southampton
Leighton Clarkson,MID,0,0,0,0,0,0,Liverpool
Kean Bryan,DEF,13,1003,1,0,1,0,Sheffield Utd
Elliot Anderson,MID,1,3,0,0,0,0,Newcastle
Lee Grant,GK,0,0,0,0,0,0,Man Utd
Daniel Langley,GK,0,0,0,0,0,0,Newcastle
Faustino Anjorin,MID,0,0,0,0,0,0,Chelsea
Jake Cain,MID,0,0,0,0,0,0,Liverpool
Theo Corbeanu,MID,1,8,0,0,0,0,Wolves
Felix Nmecha,MID,0,0,0,0,0,0,Man City
Scott Carson,GK,1,90,0,0,0,0,Man City
Taylor Perry,MID,0,0,0,0,0,0,Wolves
Luke Cundle,MID,0,0,0,0,0,0,Wolves
Joel Mumbongo,FWD,4,37,0,0,1,0,Burnley
Anthony Mancini,MID,0,0,0,0,0,0,Burnley
Christian Marques,DEF,0,0,0,0,0,0,Wolves
Lewis Richards,DEF,0,0,0,0,0,0,Wolves
Niall Huggins,FWD,1,37,0,0,0,0,Leeds
Kgaogelo Chauke,MID,0,0,0,0,0,0,Southampton
Cheikh Diaby,FWD,0,0,0,0,0,0,West Brom
Harry Lewis,GK,0,0,0,0,0,0,Southampton
Andreas Söndergaard,GK,0,0,0,0,0,0,Wolves
Antwoine Hackford,FWD,1,10,0,0,0,0,Sheffield Utd
Luke Mbete,DEF,0,0,0,0,0,0,Man City
Charlie Cresswell,DEF,0,0,0,0,0,0,Leeds
Taylor Harwood-Bellis,DEF,0,0,0,0,0,0,Man City
Teddy Jenks,MID,0,0,0,0,0,0,Brighton
Jakub Moder,MID,12,643,0,0,0,0,Brighton
Max Sanders,MID,0,0,0,0,0,0,Brighton
Percy Tau,MID,3,101,0,1,0,0,Brighton
Reda Khadra,MID,1,4,0,0,0,0,Brighton
Jensen Weir,MID,0,0,0,0,0,0,Brighton
Patrick Cutrone,FWD,2,23,0,0,0,0,Wolves
Nigel Lonwijk,DEF,0,0,0,0,0,0,Wolves
Andy Lonergan,GK,0,0,0,0,0,0,West Brom
Will Ferry,MID,0,0,0,0,0,0,Southampton
Ademipo Odubeko,FWD,0,0,0,0,0,0,West Ham
Allan Tchaptchet,DEF,1,12,0,0,0,0,Southampton
Frederik Alves,DEF,0,0,0,0,0,0,West Ham
Caleb Watts,MID,3,36,0,0,1,0,Southampton
Tyler Onyango,MID,0,0,0,0,0,0,Everton
Jean-Philippe Mateta,FWD,7,215,1,0,0,0,Crystal Palace
Alexandre Jankewitz,MID,2,2,0,0,0,1,Southampton
Amad Diallo,MID,3,165,0,1,0,0,Man Utd
Willian José Da Silva,FWD,17,1106,1,1,0,0,Wolves
